{

  "configVars": {
    "app": "app",
    "appjs": "scripts",
    "appcss": "styles",
    "build": "build",
    "dist": "dist",
    "hostname": "localhost",
    "port": 8080
  },
  "bowerFiles": [
    "angular/angular.js",
    "angular-route/angular-route.js",
    "angularAMD/angularAMD.js",
    "angularAMD/ngload.js",
    "requirejs/require.js",
    "es5-shim/es5-shim.js",
    "json3/lib/json3.js",
    "angular-resource/angular-resource.js",
    "angular-ui-router/release/angular-ui-router.js",
    "ng-grid/build/ng-grid.js",
    "jquery/dist/jquery.js",
    "jquery-ui/jquery-ui.js",
    "angular-strap/dist/angular-strap.js",
    "angular-strap/dist/angular-strap.tpl.js",
    "angular-sanitize/angular-sanitize.js",
    "ui-router-extras/release/ct-ui-router-extras.js",
    "angular-loading-bar/build/loading-bar.js",
    "angular-animate/angular-animate.js"
  ],
  "cssFiles": [
    "ng-grid/ng-grid.css",
    "angular-loading-bar/build/loading-bar.css"
  ],
  "cssFonts": [
    "bootstrap/fonts/glyphicons-halflings-regular.*"
  ],
  "buildFiles": [
    "images/**", "views/**", "scripts/ext/require.js"
  ]

}
